{
    "fluentMethods": true,
    "clientRootFolder": "",
    "relationships": [],
    "fields": [
        {
            "fieldName": "college_name",
            "fieldType": "String"
        },
        {
            "fieldName": "college_code",
            "fieldType": "String"
        },
        {
            "fieldName": "affiliated_university",
            "fieldType": "String"
        },
        {
            "fieldName": "address",
            "fieldType": "String"
        },
        {
            "fieldName": "address2",
            "fieldType": "String"
        },
        {
            "fieldName": "city",
            "fieldType": "String"
        },
        {
            "fieldName": "state",
            "fieldType": "String"
        },
        {
            "fieldName": "country",
            "fieldType": "String"
        },
        {
            "fieldName": "zip_code",
            "fieldType": "String"
        },
        {
            "fieldName": "contact_number",
            "fieldType": "Long"
        },
        {
            "fieldName": "email",
            "fieldType": "String"
        },
        {
            "fieldName": "status",
            "fieldType": "Boolean"
        },
        {
            "fieldName": "creation_date",
            "fieldType": "LocalDate"
        },
        {
            "fieldName": "created_by",
            "fieldType": "String"
        },
        {
            "fieldName": "last_update_date",
            "fieldType": "LocalDate"
        },
        {
            "fieldName": "last_update_by",
            "fieldType": "String"
        }
    ],
    "changelogDate": "20220323074326",
    "dto": "mapstruct",
    "searchEngine": false,
    "service": "serviceClass",
    "entityTableName": "colleges",
    "databaseType": "sql",
    "jpaMetamodelFiltering": false,
    "pagination": "no"
}
