{
    "fluentMethods": true,
    "clientRootFolder": "",
    "relationships": [
        {
            "relationshipName": "collegeid",
            "otherEntityName": "colleges",
            "relationshipType": "many-to-one",
            "otherEntityField": "id"
        },
        {
            "relationshipName": "departmentid",
            "otherEntityName": "departments",
            "relationshipType": "many-to-one",
            "otherEntityField": "id"
        }
    ],
    "fields": [
        {
            "fieldName": "contact_name",
            "fieldType": "String"
        },
        {
            "fieldName": "mobile",
            "fieldType": "Long"
        },
        {
            "fieldName": "email",
            "fieldType": "String"
        },
        {
            "fieldName": "designation",
            "fieldType": "String"
        },
        {
            "fieldName": "status",
            "fieldType": "Boolean"
        },
        {
            "fieldName": "creation_date",
            "fieldType": "LocalDate"
        },
        {
            "fieldName": "created_by",
            "fieldType": "String"
        },
        {
            "fieldName": "last_update_date",
            "fieldType": "LocalDate"
        },
        {
            "fieldName": "last_updated_by",
            "fieldType": "String"
        }
    ],
    "changelogDate": "20220323102144",
    "dto": "mapstruct",
    "searchEngine": false,
    "service": "serviceClass",
    "entityTableName": "contacts",
    "databaseType": "sql",
    "jpaMetamodelFiltering": false,
    "pagination": "no"
}
